…
``` r
library(tidytext)
```

    ## Warning: package 'tidytext' was built under R version 3.4.4

``` r
# fit LDA model, this will take a few minutes...
nature.lda <- LDA(nature.dtm, k = 8, control = list(seed = 666)) # always use most metal algorithm seed \m/ 

# construct tidy dataframe, relating words and associated posterior probabilities (beta) to topics
(nature.topics <- tidy(nature.lda, matrix = "beta"))
```

    ## # A tibble: 512,448 x 3
    ##    topic term        beta
    ##    <int> <chr>      <dbl>
    ##  1     1 infact 2.33e-257
    ##  2     2 infact 7.03e-270
    ##  3     3 infact 9.65e-260
    ##  4     4 infact 1.70e- 44
    ##  5     5 infact 5.92e-185
    ##  6     6 infact 3.39e-  6
    ##  7     7 infact 5.75e-269
    ##  8     8 infact 4.28e-270
    ##  9     1 aclac  5.26e-204
    ## 10     2 aclac  1.58e-269
    ## # ... with 512,438 more rows
…
